[
null,
{"id":1,"battlerName":"Actor1_1","characterIndex":0,"characterName":"$Kali","classId":1,"equips":[1,1,2,3,0],"faceIndex":0,"faceName":"MainCharas","traits":[],"initialLevel":1,"maxLevel":99,"name":"Kali","nickname":"","note":"","profile":"Hmm im pretty good at spells and stuff i guess :3\nmaybe i can learn something at Korana Magic Acadamy?"},
{"id":2,"battlerName":"Actor1_8","characterIndex":7,"characterName":"$Shally","classId":2,"equips":[2,1,2,3,0],"faceIndex":2,"faceName":"MainCharas","traits":[],"initialLevel":1,"maxLevel":99,"name":"Shally","nickname":"","note":"","profile":"Well i used to work on ships and stuff.\nbut now i wanna go learn and travel the world with Kali"},
{"id":3,"battlerName":"","characterIndex":0,"characterName":"$Sophie","classId":1,"equips":[0,0,0,0,0],"faceIndex":1,"faceName":"MainCharas","traits":[],"initialLevel":1,"maxLevel":99,"name":"Sophie","nickname":"","note":"","profile":"Im gonna be the best Wizard to ever come out of\nKorana's nyu."},
{"id":4,"battlerName":"","characterIndex":0,"characterName":"$Trista","classId":1,"equips":[0,0,0,0,0],"faceIndex":3,"faceName":"MainCharas","traits":[],"initialLevel":1,"maxLevel":99,"name":"Trista","nickname":"","note":"","profile":"I like books, do you like books? books are fun!\nDont touch Sophie or ill kill you!!"}
]