[
null,
{"id":1,"list":[{"code":111,"indent":0,"parameters":[12,"$gameMap.isEventRunning()"]},{"code":0,"indent":1,"parameters":[]},{"code":411,"indent":0,"parameters":[]},{"code":111,"indent":1,"parameters":[11,"pageup"]},{"code":355,"indent":2,"parameters":["movePartyRight()"]},{"code":230,"indent":2,"parameters":[30]},{"code":0,"indent":2,"parameters":[]},{"code":412,"indent":1,"parameters":[]},{"code":111,"indent":1,"parameters":[11,"pagedown"]},{"code":355,"indent":2,"parameters":["movePartyLeft()"]},{"code":230,"indent":2,"parameters":[30]},{"code":0,"indent":2,"parameters":[]},{"code":412,"indent":1,"parameters":[]},{"code":0,"indent":1,"parameters":[]},{"code":412,"indent":0,"parameters":[]},{"code":0,"indent":0,"parameters":[]}],"name":"AllwaysRun","switchId":4,"trigger":2},
{"id":2,"list":[{"code":102,"indent":0,"parameters":[["Open Scene_Debug","Transfer To Debug Map","Noclip","Adjust Speed","JS Console","Zoom 1.5"],-2,0,2,0]},{"code":402,"indent":0,"parameters":[0,"Open Scene_Debug"]},{"code":355,"indent":1,"parameters":["SceneManager.gotoOrginal(Scene_Debug);"]},{"code":0,"indent":1,"parameters":[]},{"code":402,"indent":0,"parameters":[1,"Transfer To Debug Map"]},{"code":201,"indent":1,"parameters":[0,3,11,10,0,0]},{"code":0,"indent":1,"parameters":[]},{"code":402,"indent":0,"parameters":[2,"Noclip"]},{"code":102,"indent":1,"parameters":[["Enable","Disable"],1,0,2,0]},{"code":402,"indent":1,"parameters":[0,"Enable"]},{"code":205,"indent":2,"parameters":[-1,{"list":[{"code":37,"indent":null},{"code":0}],"repeat":false,"skippable":false,"wait":true}]},{"code":505,"indent":2,"parameters":[{"code":37,"indent":null}]},{"code":0,"indent":2,"parameters":[]},{"code":402,"indent":1,"parameters":[1,"Disable"]},{"code":205,"indent":2,"parameters":[-1,{"list":[{"code":38,"indent":null},{"code":0}],"repeat":false,"skippable":false,"wait":true}]},{"code":505,"indent":2,"parameters":[{"code":38,"indent":null}]},{"code":0,"indent":2,"parameters":[]},{"code":404,"indent":1,"parameters":[]},{"code":0,"indent":1,"parameters":[]},{"code":402,"indent":0,"parameters":[3,"Adjust Speed"]},{"code":102,"indent":1,"parameters":[["1 (8x Slower)","2 (4x Slower)","3 (2x Slower)","4 (Normal)","5 (2x Faster)","6 (4x Faster)"],1,0,2,0]},{"code":402,"indent":1,"parameters":[0,"1 (8x Slower)"]},{"code":205,"indent":2,"parameters":[-1,{"list":[{"code":29,"parameters":[1],"indent":null},{"code":0}],"repeat":false,"skippable":false,"wait":true}]},{"code":505,"indent":2,"parameters":[{"code":29,"parameters":[1],"indent":null}]},{"code":0,"indent":2,"parameters":[]},{"code":402,"indent":1,"parameters":[1,"2 (4x Slower)"]},{"code":205,"indent":2,"parameters":[-1,{"list":[{"code":29,"parameters":[2],"indent":null},{"code":0}],"repeat":false,"skippable":false,"wait":true}]},{"code":505,"indent":2,"parameters":[{"code":29,"parameters":[2],"indent":null}]},{"code":0,"indent":2,"parameters":[]},{"code":402,"indent":1,"parameters":[2,"3 (2x Slower)"]},{"code":205,"indent":2,"parameters":[-1,{"list":[{"code":29,"parameters":[3],"indent":null},{"code":0}],"repeat":false,"skippable":false,"wait":true}]},{"code":505,"indent":2,"parameters":[{"code":29,"parameters":[3],"indent":null}]},{"code":0,"indent":2,"parameters":[]},{"code":402,"indent":1,"parameters":[3,"4 (Normal)"]},{"code":205,"indent":2,"parameters":[-1,{"list":[{"code":29,"parameters":[4],"indent":null},{"code":0}],"repeat":false,"skippable":false,"wait":true}]},{"code":505,"indent":2,"parameters":[{"code":29,"parameters":[4],"indent":null}]},{"code":0,"indent":2,"parameters":[]},{"code":402,"indent":1,"parameters":[4,"5 (2x Faster)"]},{"code":205,"indent":2,"parameters":[-1,{"list":[{"code":29,"parameters":[5],"indent":null},{"code":0}],"repeat":false,"skippable":false,"wait":true}]},{"code":505,"indent":2,"parameters":[{"code":29,"parameters":[5],"indent":null}]},{"code":0,"indent":2,"parameters":[]},{"code":402,"indent":1,"parameters":[5,"6 (4x Faster)"]},{"code":205,"indent":2,"parameters":[-1,{"list":[{"code":29,"parameters":[6],"indent":null},{"code":0}],"repeat":false,"skippable":false,"wait":true}]},{"code":505,"indent":2,"parameters":[{"code":29,"parameters":[6],"indent":null}]},{"code":0,"indent":2,"parameters":[]},{"code":404,"indent":1,"parameters":[]},{"code":0,"indent":1,"parameters":[]},{"code":402,"indent":0,"parameters":[4,"JS Console"]},{"code":355,"indent":1,"parameters":["require('nw.gui').Window.get().showDevTools();"]},{"code":0,"indent":1,"parameters":[]},{"code":402,"indent":0,"parameters":[5,"Zoom 1.5"]},{"code":356,"indent":1,"parameters":["MapZoom set 2"]},{"code":0,"indent":1,"parameters":[]},{"code":403,"indent":0,"parameters":[6,null]},{"code":0,"indent":1,"parameters":[]},{"code":404,"indent":0,"parameters":[]},{"code":0,"indent":0,"parameters":[]}],"name":"F9 Menu","switchId":1,"trigger":0},
{"id":3,"list":[{"code":0,"indent":0,"parameters":[]}],"name":"","switchId":1,"trigger":0},
{"id":4,"list":[{"code":0,"indent":0,"parameters":[]}],"name":"","switchId":1,"trigger":0},
{"id":5,"list":[{"code":0,"indent":0,"parameters":[]}],"name":"","switchId":1,"trigger":0},
{"id":6,"list":[{"code":0,"indent":0,"parameters":[]}],"name":"","switchId":1,"trigger":0},
{"id":7,"list":[{"code":0,"indent":0,"parameters":[]}],"name":"","switchId":1,"trigger":0},
{"id":8,"list":[{"code":0,"indent":0,"parameters":[]}],"name":"","switchId":1,"trigger":0},
{"id":9,"list":[{"code":0,"indent":0,"parameters":[]}],"name":"","switchId":1,"trigger":0},
{"id":10,"list":[{"code":0,"indent":0,"parameters":[]}],"name":"-- Menu Options --","switchId":1,"trigger":0},
{"id":11,"list":[{"code":250,"indent":0,"parameters":[{"name":"CLICK","volume":100,"pitch":100,"pan":0}]},{"code":221,"indent":0,"parameters":[]},{"code":201,"indent":0,"parameters":[0,3,11,6,0,2]},{"code":211,"indent":0,"parameters":[1]},{"code":0,"indent":0,"parameters":[]}],"name":"New Game","switchId":1,"trigger":0},
{"id":12,"list":[{"code":250,"indent":0,"parameters":[{"name":"CLICK","volume":100,"pitch":100,"pan":0}]},{"code":223,"indent":0,"parameters":[[-255,-255,-255,0],20,true]},{"code":355,"indent":0,"parameters":["SceneManager.push(Scene_Load);"]},{"code":223,"indent":0,"parameters":[[0,0,0,0],20,false]},{"code":0,"indent":0,"parameters":[]}],"name":"Load Game","switchId":1,"trigger":0},
{"id":13,"list":[{"code":250,"indent":0,"parameters":[{"name":"CANCEL","volume":100,"pitch":100,"pan":0}]},{"code":242,"indent":0,"parameters":[1]},{"code":223,"indent":0,"parameters":[[-255,-255,-255,0],60,true]},{"code":355,"indent":0,"parameters":["window.close();"]},{"code":0,"indent":0,"parameters":[]}],"name":"Exit Game","switchId":1,"trigger":0},
{"id":14,"list":[{"code":355,"indent":0,"parameters":["MenuIsOpen = true;"]},{"code":108,"indent":0,"parameters":["Show Everythin else"]},{"code":231,"indent":0,"parameters":[30,"MENU_bg",0,0,0,0,100,100,0,0]},{"code":231,"indent":0,"parameters":[31,"MENU_OPTIONS",0,0,5,5,100,100,0,0]},{"code":231,"indent":0,"parameters":[33,"MENU_Text",0,0,0,0,100,100,0,0]},{"code":232,"indent":0,"parameters":[30,0,0,0,0,0,100,100,255,0,20,false]},{"code":232,"indent":0,"parameters":[31,0,0,0,5,5,100,100,255,0,20,false]},{"code":232,"indent":0,"parameters":[33,0,0,0,5,5,100,100,255,0,20,true]},{"code":108,"indent":0,"parameters":["Show Pointer"]},{"code":231,"indent":0,"parameters":[32,"pointer",0,0,-20,0,100,100,255,0]},{"code":122,"indent":0,"parameters":[3,3,0,0,18]},{"code":122,"indent":0,"parameters":[4,4,0,0,15]},{"code":122,"indent":0,"parameters":[5,5,0,0,1]},{"code":122,"indent":0,"parameters":[1,1,0,0,0]},{"code":232,"indent":0,"parameters":[32,0,0,1,3,4,100,100,255,0,10,true]},{"code":117,"indent":0,"parameters":[19]},{"code":112,"indent":0,"parameters":[]},{"code":111,"indent":1,"parameters":[12,"!MenuIsOpen"]},{"code":117,"indent":2,"parameters":[22]},{"code":117,"indent":2,"parameters":[18]},{"code":113,"indent":2,"parameters":[]},{"code":0,"indent":2,"parameters":[]},{"code":412,"indent":1,"parameters":[]},{"code":111,"indent":1,"parameters":[11,"cancel"]},{"code":250,"indent":2,"parameters":[{"name":"CANCEL","volume":100,"pitch":100,"pan":0}]},{"code":113,"indent":2,"parameters":[]},{"code":0,"indent":2,"parameters":[]},{"code":412,"indent":1,"parameters":[]},{"code":111,"indent":1,"parameters":[11,"up"]},{"code":250,"indent":2,"parameters":[{"name":"CURSOR","volume":100,"pitch":100,"pan":0}]},{"code":122,"indent":2,"parameters":[1,1,2,0,1]},{"code":111,"indent":2,"parameters":[1,1,0,0,4]},{"code":122,"indent":3,"parameters":[1,1,0,0,7]},{"code":0,"indent":3,"parameters":[]},{"code":412,"indent":2,"parameters":[]},{"code":117,"indent":2,"parameters":[15]},{"code":0,"indent":2,"parameters":[]},{"code":412,"indent":1,"parameters":[]},{"code":111,"indent":1,"parameters":[11,"down"]},{"code":250,"indent":2,"parameters":[{"name":"CURSOR","volume":100,"pitch":100,"pan":0}]},{"code":122,"indent":2,"parameters":[1,1,1,0,1]},{"code":111,"indent":2,"parameters":[1,1,0,7,3]},{"code":122,"indent":3,"parameters":[1,1,0,0,0]},{"code":0,"indent":3,"parameters":[]},{"code":412,"indent":2,"parameters":[]},{"code":117,"indent":2,"parameters":[15]},{"code":0,"indent":2,"parameters":[]},{"code":412,"indent":1,"parameters":[]},{"code":111,"indent":1,"parameters":[11,"ok"]},{"code":250,"indent":2,"parameters":[{"name":"CLICK","volume":100,"pitch":100,"pan":0}]},{"code":117,"indent":2,"parameters":[17]},{"code":111,"indent":2,"parameters":[1,1,0,0,0]},{"code":355,"indent":3,"parameters":["SceneManager.push(Scene_Equip);"]},{"code":0,"indent":3,"parameters":[]},{"code":412,"indent":2,"parameters":[]},{"code":111,"indent":2,"parameters":[1,1,0,1,0]},{"code":355,"indent":3,"parameters":["SceneManager.push(Scene_Item);"]},{"code":0,"indent":3,"parameters":[]},{"code":412,"indent":2,"parameters":[]},{"code":111,"indent":2,"parameters":[1,1,0,2,0]},{"code":355,"indent":3,"parameters":["SceneManager.push(Scene_Skill);"]},{"code":0,"indent":3,"parameters":[]},{"code":412,"indent":2,"parameters":[]},{"code":111,"indent":2,"parameters":[1,1,0,3,0]},{"code":355,"indent":3,"parameters":["SceneManager.push(Scene_Status);"]},{"code":0,"indent":3,"parameters":[]},{"code":412,"indent":2,"parameters":[]},{"code":111,"indent":2,"parameters":[1,1,0,4,0]},{"code":117,"indent":3,"parameters":[21]},{"code":0,"indent":3,"parameters":[]},{"code":412,"indent":2,"parameters":[]},{"code":111,"indent":2,"parameters":[1,1,0,5,0]},{"code":117,"indent":3,"parameters":[16]},{"code":0,"indent":3,"parameters":[]},{"code":412,"indent":2,"parameters":[]},{"code":111,"indent":2,"parameters":[1,1,0,6,0]},{"code":355,"indent":3,"parameters":["SceneManager.push(Scene_Save);"]},{"code":111,"indent":3,"parameters":[12,"!MenuIsOpen"]},{"code":117,"indent":4,"parameters":[22]},{"code":117,"indent":4,"parameters":[18]},{"code":113,"indent":4,"parameters":[]},{"code":0,"indent":4,"parameters":[]},{"code":412,"indent":3,"parameters":[]},{"code":0,"indent":3,"parameters":[]},{"code":412,"indent":2,"parameters":[]},{"code":111,"indent":2,"parameters":[1,1,0,7,0]},{"code":102,"indent":3,"parameters":[["To Title","To Desktop"],-2,0,1,0]},{"code":402,"indent":3,"parameters":[0,"To Title"]},{"code":354,"indent":4,"parameters":[]},{"code":0,"indent":4,"parameters":[]},{"code":402,"indent":3,"parameters":[1,"To Desktop"]},{"code":242,"indent":4,"parameters":[1]},{"code":355,"indent":4,"parameters":["window.close();"]},{"code":0,"indent":4,"parameters":[]},{"code":403,"indent":3,"parameters":[6,null]},{"code":0,"indent":4,"parameters":[]},{"code":404,"indent":3,"parameters":[]},{"code":0,"indent":3,"parameters":[]},{"code":412,"indent":2,"parameters":[]},{"code":117,"indent":2,"parameters":[18]},{"code":0,"indent":2,"parameters":[]},{"code":412,"indent":1,"parameters":[]},{"code":111,"indent":1,"parameters":[1,5,0,1,0]},{"code":122,"indent":2,"parameters":[3,3,1,0,1]},{"code":111,"indent":2,"parameters":[1,3,0,24,0]},{"code":122,"indent":3,"parameters":[5,5,0,0,0]},{"code":0,"indent":3,"parameters":[]},{"code":412,"indent":2,"parameters":[]},{"code":0,"indent":2,"parameters":[]},{"code":411,"indent":1,"parameters":[]},{"code":122,"indent":2,"parameters":[3,3,2,0,1]},{"code":111,"indent":2,"parameters":[1,3,0,18,0]},{"code":122,"indent":3,"parameters":[5,5,0,0,1]},{"code":0,"indent":3,"parameters":[]},{"code":412,"indent":2,"parameters":[]},{"code":0,"indent":2,"parameters":[]},{"code":412,"indent":1,"parameters":[]},{"code":232,"indent":1,"parameters":[32,0,0,1,3,4,100,100,255,0,1,false]},{"code":230,"indent":1,"parameters":[3]},{"code":0,"indent":1,"parameters":[]},{"code":413,"indent":0,"parameters":[]},{"code":111,"indent":0,"parameters":[12,"MenuIsOpen"]},{"code":117,"indent":1,"parameters":[22]},{"code":0,"indent":1,"parameters":[]},{"code":412,"indent":0,"parameters":[]},{"code":355,"indent":0,"parameters":["MenuIsOpen = false;"]},{"code":0,"indent":0,"parameters":[]}],"name":"MENU_Process","switchId":1,"trigger":0},
{"id":15,"list":[{"code":111,"indent":0,"parameters":[1,1,0,0,0]},{"code":122,"indent":1,"parameters":[4,4,0,0,15]},{"code":232,"indent":1,"parameters":[32,0,0,1,3,4,100,100,255,0,10,true]},{"code":0,"indent":1,"parameters":[]},{"code":412,"indent":0,"parameters":[]},{"code":111,"indent":0,"parameters":[1,1,0,1,0]},{"code":122,"indent":1,"parameters":[4,4,0,0,62]},{"code":232,"indent":1,"parameters":[32,0,0,1,3,4,100,100,255,0,10,true]},{"code":0,"indent":1,"parameters":[]},{"code":412,"indent":0,"parameters":[]},{"code":111,"indent":0,"parameters":[1,1,0,2,0]},{"code":122,"indent":1,"parameters":[4,4,0,0,104]},{"code":232,"indent":1,"parameters":[32,0,0,1,3,4,100,100,255,0,10,true]},{"code":0,"indent":1,"parameters":[]},{"code":412,"indent":0,"parameters":[]},{"code":111,"indent":0,"parameters":[1,1,0,3,0]},{"code":122,"indent":1,"parameters":[4,4,0,0,150]},{"code":232,"indent":1,"parameters":[32,0,0,1,3,4,100,100,255,0,10,true]},{"code":0,"indent":1,"parameters":[]},{"code":412,"indent":0,"parameters":[]},{"code":111,"indent":0,"parameters":[1,1,0,4,0]},{"code":122,"indent":1,"parameters":[4,4,0,0,192]},{"code":232,"indent":1,"parameters":[32,0,0,1,3,4,100,100,255,0,10,true]},{"code":0,"indent":1,"parameters":[]},{"code":412,"indent":0,"parameters":[]},{"code":111,"indent":0,"parameters":[1,1,0,5,0]},{"code":122,"indent":1,"parameters":[4,4,0,0,239]},{"code":232,"indent":1,"parameters":[32,0,0,1,3,4,100,100,255,0,10,true]},{"code":0,"indent":1,"parameters":[]},{"code":412,"indent":0,"parameters":[]},{"code":111,"indent":0,"parameters":[1,1,0,6,0]},{"code":122,"indent":1,"parameters":[4,4,0,0,280]},{"code":232,"indent":1,"parameters":[32,0,0,1,3,4,100,100,255,0,10,true]},{"code":0,"indent":1,"parameters":[]},{"code":412,"indent":0,"parameters":[]},{"code":111,"indent":0,"parameters":[1,1,0,7,0]},{"code":122,"indent":1,"parameters":[4,4,0,0,326]},{"code":232,"indent":1,"parameters":[32,0,0,1,3,4,100,100,255,0,10,true]},{"code":0,"indent":1,"parameters":[]},{"code":412,"indent":0,"parameters":[]},{"code":0,"indent":0,"parameters":[]}],"name":"MENU_MovePointer","switchId":1,"trigger":0},
{"id":16,"list":[{"code":111,"indent":0,"parameters":[11,"shift"]},{"code":117,"indent":1,"parameters":[2]},{"code":0,"indent":1,"parameters":[]},{"code":411,"indent":0,"parameters":[]},{"code":101,"indent":1,"parameters":["",0,0,2]},{"code":401,"indent":1,"parameters":["Would you like to submit a Bug Report?"]},{"code":102,"indent":1,"parameters":[["Yes","No"],1,0,1,0]},{"code":402,"indent":1,"parameters":[0,"Yes"]},{"code":355,"indent":2,"parameters":["runCommand(\"start https://bitbucket.org/SilicaAndPina/magica/issues?status=new&status=open\");"]},{"code":0,"indent":2,"parameters":[]},{"code":402,"indent":1,"parameters":[1,"No"]},{"code":0,"indent":2,"parameters":[]},{"code":404,"indent":1,"parameters":[]},{"code":0,"indent":1,"parameters":[]},{"code":412,"indent":0,"parameters":[]},{"code":0,"indent":0,"parameters":[]}],"name":"MENU_Debug","switchId":1,"trigger":0},
{"id":17,"list":[{"code":231,"indent":0,"parameters":[100,"EFFECT_FADEOUT",0,0,0,0,100,100,0,0]},{"code":232,"indent":0,"parameters":[100,0,0,0,0,0,100,100,255,0,30,true]},{"code":0,"indent":0,"parameters":[]}],"name":"MENU_Fadeout","switchId":1,"trigger":0},
{"id":18,"list":[{"code":232,"indent":0,"parameters":[100,0,0,0,0,0,100,100,0,0,30,true]},{"code":235,"indent":0,"parameters":[100]},{"code":0,"indent":0,"parameters":[]}],"name":"MENU_Fadein","switchId":1,"trigger":0},
{"id":19,"list":[{"code":355,"indent":0,"parameters":["ImageManager.loadPicture(\"Menu_HpBar\");"]},{"code":655,"indent":0,"parameters":["ImageManager.loadPicture(\"Menu_HPFILL\");"]},{"code":655,"indent":0,"parameters":["ImageManager.loadPicture(\"Menu_MpBar\");"]},{"code":655,"indent":0,"parameters":["ImageManager.loadPicture(\"Menu_MPFILL\");"]},{"code":108,"indent":0,"parameters":["Member 1"]},{"code":122,"indent":0,"parameters":[2,2,0,3,6,0,0]},{"code":111,"indent":0,"parameters":[1,2,0,1,1]},{"code":231,"indent":1,"parameters":[50,"&Party1TextMenu",0,0,132,231,100,100,0,0]},{"code":231,"indent":1,"parameters":[40,"&Party1MenuScene",0,0,142,231,100,100,0,0]},{"code":108,"indent":1,"parameters":["Draw HP Bar"]},{"code":231,"indent":1,"parameters":[60,"Menu_HpBar",0,0,165,514,100,100,0,0]},{"code":231,"indent":1,"parameters":[61,"Menu_BLNKFILL",0,0,165,531,100,100,0,0]},{"code":231,"indent":1,"parameters":[62,"Menu_HPFILL",0,0,165,531,100,100,0,0]},{"code":122,"indent":1,"parameters":[6,6,0,4,"$gameParty.members()[0].mhp"]},{"code":122,"indent":1,"parameters":[7,7,0,4,"$gameParty.members()[0].hp"]},{"code":355,"indent":1,"parameters":["changeScaleX(61,12300)"]},{"code":355,"indent":1,"parameters":["changeScaleX(62,100 * ($gameVariables.value(7)* 123) / $gameVariables.value(6))"]},{"code":108,"indent":1,"parameters":["Draw MP Bar"]},{"code":231,"indent":1,"parameters":[70,"Menu_MpBar",0,0,165,539,100,100,0,0]},{"code":231,"indent":1,"parameters":[71,"Menu_BLNKFILL",0,0,165,556,100,100,0,0]},{"code":231,"indent":1,"parameters":[72,"Menu_MPFILL",0,0,165,556,100,100,0,0]},{"code":122,"indent":1,"parameters":[6,6,0,4,"$gameParty.members()[0].mmp"]},{"code":122,"indent":1,"parameters":[7,7,0,4,"$gameParty.members()[0].mp"]},{"code":355,"indent":1,"parameters":["changeScaleX(71,12300)"]},{"code":355,"indent":1,"parameters":["changeScaleX(72,100 * ($gameVariables.value(7)* 123) / $gameVariables.value(6))"]},{"code":232,"indent":1,"parameters":[40,0,0,0,142,231,100,100,255,0,30,false]},{"code":232,"indent":1,"parameters":[50,0,0,0,142,231,100,100,255,0,30,false]},{"code":232,"indent":1,"parameters":[60,0,0,0,179,514,100,100,255,0,30,false]},{"code":355,"indent":1,"parameters":["try{"]},{"code":655,"indent":1,"parameters":["$gameScreen.movePicture(61,0,179,531,$gameScreen.picture(61)._scaleX,$gameScreen.picture(61)._scaleY,255,0,30);"]},{"code":655,"indent":1,"parameters":["}"]},{"code":655,"indent":1,"parameters":["catch(e){"]},{"code":655,"indent":1,"parameters":["}"]},{"code":355,"indent":1,"parameters":["try{"]},{"code":655,"indent":1,"parameters":["$gameScreen.movePicture(62,0,179,531,$gameScreen.picture(62)._scaleX,$gameScreen.picture(62)._scaleY,255,0,30);"]},{"code":655,"indent":1,"parameters":["}"]},{"code":655,"indent":1,"parameters":["catch(e){"]},{"code":655,"indent":1,"parameters":["}"]},{"code":232,"indent":1,"parameters":[70,0,0,0,179,539,100,100,255,0,30,false]},{"code":355,"indent":1,"parameters":["try{"]},{"code":655,"indent":1,"parameters":["$gameScreen.movePicture(71,0,179,556,$gameScreen.picture(71)._scaleX,$gameScreen.picture(71)._scaleY,255,0,30);"]},{"code":655,"indent":1,"parameters":["}"]},{"code":655,"indent":1,"parameters":["catch(e){"]},{"code":655,"indent":1,"parameters":["};"]},{"code":355,"indent":1,"parameters":["try{"]},{"code":655,"indent":1,"parameters":["$gameScreen.movePicture(72,0,179,556,$gameScreen.picture(72)._scaleX,$gameScreen.picture(72)._scaleY,255,0,30);"]},{"code":655,"indent":1,"parameters":["}"]},{"code":655,"indent":1,"parameters":["catch(e){"]},{"code":655,"indent":1,"parameters":["};"]},{"code":0,"indent":1,"parameters":[]},{"code":412,"indent":0,"parameters":[]},{"code":108,"indent":0,"parameters":["Member 2"]},{"code":122,"indent":0,"parameters":[2,2,0,3,6,1,0]},{"code":111,"indent":0,"parameters":[1,2,0,1,1]},{"code":231,"indent":1,"parameters":[51,"&Party2TextMenu",0,0,308,231,100,100,0,0]},{"code":231,"indent":1,"parameters":[41,"&Party2MenuScene",0,0,318,231,100,100,0,0]},{"code":108,"indent":1,"parameters":["Draw HP Bar"]},{"code":112,"indent":1,"parameters":[]},{"code":113,"indent":2,"parameters":[]},{"code":231,"indent":2,"parameters":[62,"Menu_HpBar",0,0,341,514,100,100,0,0]},{"code":231,"indent":2,"parameters":[63,"Menu_BLNKFILL",0,0,341,531,100,100,0,0]},{"code":231,"indent":2,"parameters":[64,"Menu_HPFILL",0,0,341,531,100,100,0,0]},{"code":122,"indent":2,"parameters":[6,6,0,4,"$gameParty.members()[1].mhp"]},{"code":122,"indent":2,"parameters":[7,7,0,4,"$gameParty.members()[1].hp"]},{"code":355,"indent":2,"parameters":["changeScaleX(63,12300)"]},{"code":355,"indent":2,"parameters":["changeScaleX(64,100 * ($gameVariables.value(7)* 123) / $gameVariables.value(6))"]},{"code":0,"indent":2,"parameters":[]},{"code":413,"indent":1,"parameters":[]},{"code":108,"indent":1,"parameters":["Draw MP Bar"]},{"code":231,"indent":1,"parameters":[72,"Menu_MpBar",0,0,341,539,100,100,0,0]},{"code":231,"indent":1,"parameters":[73,"Menu_BLNKFILL",0,0,341,556,100,100,0,0]},{"code":231,"indent":1,"parameters":[74,"Menu_MPFILL",0,0,341,556,100,100,0,0]},{"code":122,"indent":1,"parameters":[6,6,0,4,"$gameParty.members()[1].mmp"]},{"code":122,"indent":1,"parameters":[7,7,0,4,"$gameParty.members()[1].mp"]},{"code":355,"indent":1,"parameters":["changeScaleX(73,12300)"]},{"code":355,"indent":1,"parameters":["changeScaleX(74,100 * ($gameVariables.value(7)* 123) / $gameVariables.value(6))"]},{"code":232,"indent":1,"parameters":[41,0,0,0,318,231,100,100,255,0,30,false]},{"code":232,"indent":1,"parameters":[51,0,0,0,318,231,100,100,255,0,30,false]},{"code":232,"indent":1,"parameters":[62,0,0,0,355,514,100,100,255,0,30,false]},{"code":355,"indent":1,"parameters":["try{"]},{"code":655,"indent":1,"parameters":["$gameScreen.movePicture(64,0,355,531,$gameScreen.picture(64)._scaleX,$gameScreen.picture(64)._scaleY,255,0,30);"]},{"code":655,"indent":1,"parameters":["}"]},{"code":655,"indent":1,"parameters":["catch(e){"]},{"code":655,"indent":1,"parameters":["};"]},{"code":355,"indent":1,"parameters":["try{"]},{"code":655,"indent":1,"parameters":["$gameScreen.movePicture(63,0,355,531,$gameScreen.picture(63)._scaleX,$gameScreen.picture(63)._scaleY,255,0,30);"]},{"code":655,"indent":1,"parameters":["}"]},{"code":655,"indent":1,"parameters":["catch(e){"]},{"code":655,"indent":1,"parameters":["};"]},{"code":232,"indent":1,"parameters":[72,0,0,0,355,539,100,100,255,0,30,false]},{"code":355,"indent":1,"parameters":["try{"]},{"code":655,"indent":1,"parameters":["$gameScreen.movePicture(73,0,355,556,$gameScreen.picture(73)._scaleX,$gameScreen.picture(73)._scaleY,255,0,30);"]},{"code":655,"indent":1,"parameters":["}"]},{"code":655,"indent":1,"parameters":["catch(e){"]},{"code":655,"indent":1,"parameters":["};"]},{"code":355,"indent":1,"parameters":["try{"]},{"code":655,"indent":1,"parameters":["$gameScreen.movePicture(74,0,355,556,$gameScreen.picture(74)._scaleX,$gameScreen.picture(74)._scaleY,255,1,30);"]},{"code":655,"indent":1,"parameters":["}"]},{"code":655,"indent":1,"parameters":["catch(e){"]},{"code":655,"indent":1,"parameters":["};"]},{"code":0,"indent":1,"parameters":[]},{"code":412,"indent":0,"parameters":[]},{"code":108,"indent":0,"parameters":["Member 3"]},{"code":122,"indent":0,"parameters":[2,2,0,3,6,2,0]},{"code":111,"indent":0,"parameters":[1,2,0,1,1]},{"code":231,"indent":1,"parameters":[52,"&Party3TextMenu",0,0,490,231,100,100,0,0]},{"code":231,"indent":1,"parameters":[42,"&Party3MenuScene",0,0,500,231,100,100,0,0]},{"code":108,"indent":1,"parameters":["Draw HP Bar"]},{"code":231,"indent":1,"parameters":[64,"Menu_HpBar",0,0,523,514,100,100,0,0]},{"code":231,"indent":1,"parameters":[65,"Menu_BLNKFILL",0,0,523,531,100,100,0,0]},{"code":231,"indent":1,"parameters":[66,"Menu_HPFILL",0,0,523,531,100,100,0,0]},{"code":122,"indent":1,"parameters":[6,6,0,4,"$gameParty.members()[2].mhp"]},{"code":122,"indent":1,"parameters":[7,7,0,4,"$gameParty.members()[2].hp"]},{"code":355,"indent":1,"parameters":["changeScaleX(65,12300)"]},{"code":355,"indent":1,"parameters":["changeScaleX(66,100 * ($gameVariables.value(7)* 123) / $gameVariables.value(6))"]},{"code":108,"indent":1,"parameters":["Draw MP Bar"]},{"code":231,"indent":1,"parameters":[74,"Menu_MpBar",0,0,523,539,100,100,0,0]},{"code":231,"indent":1,"parameters":[75,"Menu_BLNKFILL",0,0,523,556,100,100,0,0]},{"code":231,"indent":1,"parameters":[76,"Menu_MPFILL",0,0,523,556,100,100,0,0]},{"code":122,"indent":1,"parameters":[6,6,0,4,"$gameParty.members()[2].mmp"]},{"code":122,"indent":1,"parameters":[7,7,0,4,"$gameParty.members()[2].mp"]},{"code":355,"indent":1,"parameters":["changeScaleX(75,12300)"]},{"code":355,"indent":1,"parameters":["changeScaleX(76,100 * ($gameVariables.value(7)* 123) / $gameVariables.value(6))"]},{"code":232,"indent":1,"parameters":[52,0,0,0,500,231,100,100,255,0,30,false]},{"code":232,"indent":1,"parameters":[42,0,0,0,500,231,100,100,255,0,30,false]},{"code":232,"indent":1,"parameters":[64,0,0,0,537,514,100,100,255,0,30,false]},{"code":355,"indent":1,"parameters":["try{"]},{"code":655,"indent":1,"parameters":["$gameScreen.movePicture(65,0,537,531,$gameScreen.picture(65)._scaleX,$gameScreen.picture(65)._scaleY,255,0,30);"]},{"code":655,"indent":1,"parameters":["}"]},{"code":655,"indent":1,"parameters":["catch(e){"]},{"code":655,"indent":1,"parameters":["}"]},{"code":355,"indent":1,"parameters":["try{"]},{"code":655,"indent":1,"parameters":["$gameScreen.movePicture(66,0,537,531,$gameScreen.picture(66)._scaleX,$gameScreen.picture(66)._scaleY,255,0,30);"]},{"code":655,"indent":1,"parameters":["}"]},{"code":655,"indent":1,"parameters":["catch(e){"]},{"code":655,"indent":1,"parameters":["}"]},{"code":232,"indent":1,"parameters":[74,0,0,0,537,539,100,100,255,0,30,false]},{"code":355,"indent":1,"parameters":["try{"]},{"code":655,"indent":1,"parameters":["$gameScreen.movePicture(75,0,537,556,$gameScreen.picture(75)._scaleX,$gameScreen.picture(75)._scaleY,255,0,30);"]},{"code":655,"indent":1,"parameters":["}"]},{"code":655,"indent":1,"parameters":["catch(e){"]},{"code":655,"indent":1,"parameters":["};"]},{"code":355,"indent":1,"parameters":["try{"]},{"code":655,"indent":1,"parameters":["$gameScreen.movePicture(76,0,537,556,$gameScreen.picture(76)._scaleX,$gameScreen.picture(76)._scaleY,255,0,30);"]},{"code":655,"indent":1,"parameters":["}"]},{"code":655,"indent":1,"parameters":["catch(e){"]},{"code":655,"indent":1,"parameters":["};"]},{"code":0,"indent":1,"parameters":[]},{"code":412,"indent":0,"parameters":[]},{"code":108,"indent":0,"parameters":["Member 4"]},{"code":122,"indent":0,"parameters":[2,2,0,3,6,3,0]},{"code":111,"indent":0,"parameters":[1,2,0,1,1]},{"code":231,"indent":1,"parameters":[53,"&Party4TextMenu",0,0,675,231,100,100,0,0]},{"code":231,"indent":1,"parameters":[43,"&Party4MenuScene",0,0,685,231,100,100,0,0]},{"code":108,"indent":1,"parameters":["Draw HP Bar"]},{"code":231,"indent":1,"parameters":[66,"Menu_HpBar",0,0,708,514,100,100,0,0]},{"code":231,"indent":1,"parameters":[67,"Menu_BLNKFILL",0,0,708,531,100,100,0,0]},{"code":231,"indent":1,"parameters":[68,"Menu_HPFILL",0,0,708,531,100,100,0,0]},{"code":122,"indent":1,"parameters":[6,6,0,4,"$gameParty.members()[3].mhp"]},{"code":122,"indent":1,"parameters":[7,7,0,4,"$gameParty.members()[3].hp"]},{"code":355,"indent":1,"parameters":["changeScaleX(67,12300)"]},{"code":355,"indent":1,"parameters":["changeScaleX(68,100 * ($gameVariables.value(7)* 123) / $gameVariables.value(6))"]},{"code":108,"indent":1,"parameters":["Draw MP Bar"]},{"code":231,"indent":1,"parameters":[76,"Menu_MpBar",0,0,708,539,100,100,0,0]},{"code":231,"indent":1,"parameters":[77,"Menu_BLNKFILL",0,0,708,556,100,100,0,0]},{"code":231,"indent":1,"parameters":[78,"Menu_MPFILL",0,0,708,556,100,100,0,0]},{"code":122,"indent":1,"parameters":[6,6,0,4,"$gameParty.members()[3].mmp"]},{"code":122,"indent":1,"parameters":[7,7,0,4,"$gameParty.members()[3].mp"]},{"code":355,"indent":1,"parameters":["changeScaleX(77,12300)"]},{"code":355,"indent":1,"parameters":["changeScaleX(78,100 * ($gameVariables.value(7)* 123) / $gameVariables.value(6))"]},{"code":232,"indent":1,"parameters":[53,0,0,0,685,231,100,100,255,0,30,false]},{"code":232,"indent":1,"parameters":[43,0,0,0,685,231,100,100,255,0,30,false]},{"code":232,"indent":1,"parameters":[66,0,0,0,722,514,100,100,255,0,30,false]},{"code":355,"indent":1,"parameters":["try{"]},{"code":655,"indent":1,"parameters":["$gameScreen.movePicture(67,0,722,531,$gameScreen.picture(67)._scaleX,$gameScreen.picture(67)._scaleY,255,0,30);"]},{"code":655,"indent":1,"parameters":["}"]},{"code":655,"indent":1,"parameters":["catch(e){"]},{"code":655,"indent":1,"parameters":["};"]},{"code":355,"indent":1,"parameters":["try{"]},{"code":655,"indent":1,"parameters":["$gameScreen.movePicture(68,0,722,531,$gameScreen.picture(68)._scaleX,$gameScreen.picture(68)._scaleY,255,0,30);"]},{"code":655,"indent":1,"parameters":["}"]},{"code":655,"indent":1,"parameters":["catch(e){"]},{"code":655,"indent":1,"parameters":["};"]},{"code":232,"indent":1,"parameters":[76,0,0,0,722,539,100,100,255,0,30,false]},{"code":355,"indent":1,"parameters":["try{"]},{"code":655,"indent":1,"parameters":["$gameScreen.movePicture(77,0,722,556,$gameScreen.picture(77)._scaleX,$gameScreen.picture(77)._scaleY,255,0,30);"]},{"code":655,"indent":1,"parameters":["}"]},{"code":655,"indent":1,"parameters":["catch(e){"]},{"code":655,"indent":1,"parameters":["};"]},{"code":355,"indent":1,"parameters":["try{"]},{"code":655,"indent":1,"parameters":["$gameScreen.movePicture(78,0,722,556,$gameScreen.picture(78)._scaleX,$gameScreen.picture(78)._scaleY,255,0,30);"]},{"code":655,"indent":1,"parameters":["}"]},{"code":655,"indent":1,"parameters":["catch(e){"]},{"code":655,"indent":1,"parameters":["};"]},{"code":0,"indent":1,"parameters":[]},{"code":412,"indent":0,"parameters":[]},{"code":0,"indent":0,"parameters":[]}],"name":"MENU_ShowParty","switchId":1,"trigger":0},
{"id":20,"list":[{"code":232,"indent":0,"parameters":[40,0,0,0,142,231,100,100,0,0,30,false]},{"code":232,"indent":0,"parameters":[41,0,0,0,318,231,100,100,0,0,30,false]},{"code":232,"indent":0,"parameters":[42,0,0,0,500,231,100,100,0,0,30,false]},{"code":232,"indent":0,"parameters":[43,0,0,0,685,231,100,100,0,0,30,false]},{"code":232,"indent":0,"parameters":[50,0,0,0,132,231,100,100,0,0,30,false]},{"code":232,"indent":0,"parameters":[51,0,0,0,308,231,100,100,0,0,30,false]},{"code":232,"indent":0,"parameters":[52,0,0,0,489,231,100,100,0,0,30,false]},{"code":232,"indent":0,"parameters":[53,0,0,0,675,231,100,100,0,0,30,false]},{"code":108,"indent":0,"parameters":["Hide HP Bars"]},{"code":232,"indent":0,"parameters":[60,0,0,0,165,514,100,100,0,0,30,false]},{"code":355,"indent":0,"parameters":["try{"]},{"code":655,"indent":0,"parameters":["$gameScreen.movePicture(61,0,165,531,$gameScreen.picture(61)._scaleX,$gameScreen.picture(61)._scaleY,0,0,30);"]},{"code":655,"indent":0,"parameters":["}"]},{"code":655,"indent":0,"parameters":["catch(e){"]},{"code":655,"indent":0,"parameters":["};"]},{"code":232,"indent":0,"parameters":[62,0,0,0,341,514,100,100,0,0,30,false]},{"code":355,"indent":0,"parameters":["try{"]},{"code":655,"indent":0,"parameters":["$gameScreen.movePicture(63,0,341,531,$gameScreen.picture(63)._scaleX,$gameScreen.picture(63)._scaleY,0,0,30);"]},{"code":655,"indent":0,"parameters":["}"]},{"code":655,"indent":0,"parameters":["catch(e){"]},{"code":655,"indent":0,"parameters":["};"]},{"code":232,"indent":0,"parameters":[64,0,0,0,523,514,100,100,0,0,30,false]},{"code":355,"indent":0,"parameters":["try{"]},{"code":655,"indent":0,"parameters":["$gameScreen.movePicture(65,0,523,531,$gameScreen.picture(65)._scaleX,$gameScreen.picture(65)._scaleY,0,0,30);"]},{"code":655,"indent":0,"parameters":["}"]},{"code":655,"indent":0,"parameters":["catch(e){"]},{"code":655,"indent":0,"parameters":["};"]},{"code":232,"indent":0,"parameters":[66,0,0,0,708,514,100,100,0,0,30,false]},{"code":355,"indent":0,"parameters":["try{"]},{"code":655,"indent":0,"parameters":["$gameScreen.movePicture(67,0,708,531,$gameScreen.picture(67)._scaleX,$gameScreen.picture(67)._scaleY,0,0,30);"]},{"code":655,"indent":0,"parameters":["}"]},{"code":655,"indent":0,"parameters":["catch(e){"]},{"code":655,"indent":0,"parameters":["};"]},{"code":108,"indent":0,"parameters":["Hide MP Bars"]},{"code":232,"indent":0,"parameters":[70,0,0,0,165,539,100,100,0,0,30,false]},{"code":355,"indent":0,"parameters":["try{"]},{"code":655,"indent":0,"parameters":["$gameScreen.movePicture(71,0,165,556,$gameScreen.picture(71)._scaleX,$gameScreen.picture(71)._scaleY,0,0,30);"]},{"code":655,"indent":0,"parameters":["}"]},{"code":655,"indent":0,"parameters":["catch(e){"]},{"code":655,"indent":0,"parameters":["};"]},{"code":232,"indent":0,"parameters":[72,0,0,0,341,539,100,100,0,0,30,false]},{"code":355,"indent":0,"parameters":["try{"]},{"code":655,"indent":0,"parameters":["$gameScreen.movePicture(73,0,341,556,$gameScreen.picture(73)._scaleX,$gameScreen.picture(73)._scaleY,0,0,30);"]},{"code":655,"indent":0,"parameters":["}"]},{"code":655,"indent":0,"parameters":["catch(e){"]},{"code":655,"indent":0,"parameters":["};"]},{"code":232,"indent":0,"parameters":[74,0,0,0,523,539,100,100,0,0,30,false]},{"code":355,"indent":0,"parameters":["try{"]},{"code":655,"indent":0,"parameters":["$gameScreen.movePicture(75,0,523,556,$gameScreen.picture(75)._scaleX,$gameScreen.picture(75)._scaleY,0,0,30);"]},{"code":655,"indent":0,"parameters":["}"]},{"code":655,"indent":0,"parameters":["catch(e){"]},{"code":655,"indent":0,"parameters":["};"]},{"code":232,"indent":0,"parameters":[76,0,0,0,708,539,100,100,0,0,30,false]},{"code":355,"indent":0,"parameters":["try{"]},{"code":655,"indent":0,"parameters":["$gameScreen.movePicture(77,0,708,556,$gameScreen.picture(77)._scaleX,$gameScreen.picture(77)._scaleY,0,0,30);"]},{"code":655,"indent":0,"parameters":["}"]},{"code":655,"indent":0,"parameters":["catch(e){"]},{"code":655,"indent":0,"parameters":["};"]},{"code":230,"indent":0,"parameters":[30]},{"code":235,"indent":0,"parameters":[40]},{"code":235,"indent":0,"parameters":[41]},{"code":235,"indent":0,"parameters":[42]},{"code":235,"indent":0,"parameters":[43]},{"code":235,"indent":0,"parameters":[50]},{"code":235,"indent":0,"parameters":[51]},{"code":235,"indent":0,"parameters":[52]},{"code":235,"indent":0,"parameters":[53]},{"code":235,"indent":0,"parameters":[60]},{"code":235,"indent":0,"parameters":[61]},{"code":235,"indent":0,"parameters":[62]},{"code":235,"indent":0,"parameters":[63]},{"code":235,"indent":0,"parameters":[64]},{"code":235,"indent":0,"parameters":[65]},{"code":235,"indent":0,"parameters":[66]},{"code":235,"indent":0,"parameters":[67]},{"code":235,"indent":0,"parameters":[70]},{"code":235,"indent":0,"parameters":[71]},{"code":235,"indent":0,"parameters":[72]},{"code":235,"indent":0,"parameters":[73]},{"code":235,"indent":0,"parameters":[74]},{"code":235,"indent":0,"parameters":[75]},{"code":235,"indent":0,"parameters":[76]},{"code":235,"indent":0,"parameters":[77]},{"code":0,"indent":0,"parameters":[]}],"name":"MENU_HideParty","switchId":1,"trigger":0},
{"id":21,"list":[{"code":243,"indent":0,"parameters":[]},{"code":241,"indent":0,"parameters":[{"name":"Menu","volume":100,"pitch":100,"pan":0}]},{"code":112,"indent":0,"parameters":[]},{"code":101,"indent":1,"parameters":["",0,0,2]},{"code":401,"indent":1,"parameters":["\\>Game Options\\<"]},{"code":102,"indent":1,"parameters":[["Audio Settings","Video Settings","Gameplay Settings","Control Settings"],-2,0,1,0]},{"code":402,"indent":1,"parameters":[0,"Audio Settings"]},{"code":355,"indent":2,"parameters":["SceneManager.push(Scene_Options);"]},{"code":0,"indent":2,"parameters":[]},{"code":402,"indent":1,"parameters":[1,"Video Settings"]},{"code":101,"indent":2,"parameters":["",0,0,2]},{"code":401,"indent":2,"parameters":["\\>Video Settings\\<"]},{"code":102,"indent":2,"parameters":[["Fullscreen"],-2,0,1,0]},{"code":402,"indent":2,"parameters":[0,"Fullscreen"]},{"code":111,"indent":3,"parameters":[0,2,0]},{"code":101,"indent":4,"parameters":["",0,0,2]},{"code":401,"indent":4,"parameters":["\\>Fullscreen (Currently: ON)\\<"]},{"code":401,"indent":4,"parameters":[""]},{"code":401,"indent":4,"parameters":["\\>(The game is in FullScreen mode)\\<"]},{"code":102,"indent":4,"parameters":[["ON","OFF"],1,0,1,0]},{"code":402,"indent":4,"parameters":[0,"ON"]},{"code":121,"indent":5,"parameters":[2,2,0]},{"code":355,"indent":5,"parameters":["Graphics._requestFullScreen();"]},{"code":0,"indent":5,"parameters":[]},{"code":402,"indent":4,"parameters":[1,"OFF"]},{"code":121,"indent":5,"parameters":[2,2,1]},{"code":355,"indent":5,"parameters":["Graphics._cancelFullScreen();"]},{"code":0,"indent":5,"parameters":[]},{"code":404,"indent":4,"parameters":[]},{"code":0,"indent":4,"parameters":[]},{"code":411,"indent":3,"parameters":[]},{"code":101,"indent":4,"parameters":["",0,0,2]},{"code":401,"indent":4,"parameters":["\\>Fullscreen (Currently: OFF)\\<"]},{"code":401,"indent":4,"parameters":[""]},{"code":401,"indent":4,"parameters":["\\>(The game is in Windowed mode)\\<"]},{"code":102,"indent":4,"parameters":[["ON","OFF"],1,0,1,0]},{"code":402,"indent":4,"parameters":[0,"ON"]},{"code":121,"indent":5,"parameters":[2,2,0]},{"code":355,"indent":5,"parameters":["Graphics._requestFullScreen();"]},{"code":0,"indent":5,"parameters":[]},{"code":402,"indent":4,"parameters":[1,"OFF"]},{"code":121,"indent":5,"parameters":[2,2,1]},{"code":355,"indent":5,"parameters":["Graphics._cancelFullScreen();"]},{"code":0,"indent":5,"parameters":[]},{"code":404,"indent":4,"parameters":[]},{"code":0,"indent":4,"parameters":[]},{"code":412,"indent":3,"parameters":[]},{"code":0,"indent":3,"parameters":[]},{"code":403,"indent":2,"parameters":[6,null]},{"code":0,"indent":3,"parameters":[]},{"code":404,"indent":2,"parameters":[]},{"code":0,"indent":2,"parameters":[]},{"code":402,"indent":1,"parameters":[2,"Gameplay Settings"]},{"code":101,"indent":2,"parameters":["",0,0,2]},{"code":401,"indent":2,"parameters":["\\>Gameplay Settings\\<"]},{"code":102,"indent":2,"parameters":[["Random Encounters","Command Remember"],-2,0,1,0]},{"code":402,"indent":2,"parameters":[0,"Random Encounters"]},{"code":111,"indent":3,"parameters":[0,3,0]},{"code":101,"indent":4,"parameters":["",0,0,2]},{"code":401,"indent":4,"parameters":["\\>Random Encounters (Currently: ON)\\<"]},{"code":401,"indent":4,"parameters":[""]},{"code":401,"indent":4,"parameters":["\\>(You will enter random battles)\\<"]},{"code":102,"indent":4,"parameters":[["ON","OFF"],1,0,1,0]},{"code":402,"indent":4,"parameters":[0,"ON"]},{"code":121,"indent":5,"parameters":[3,3,0]},{"code":136,"indent":5,"parameters":[1]},{"code":0,"indent":5,"parameters":[]},{"code":402,"indent":4,"parameters":[1,"OFF"]},{"code":121,"indent":5,"parameters":[3,3,1]},{"code":136,"indent":5,"parameters":[0]},{"code":0,"indent":5,"parameters":[]},{"code":404,"indent":4,"parameters":[]},{"code":0,"indent":4,"parameters":[]},{"code":411,"indent":3,"parameters":[]},{"code":101,"indent":4,"parameters":["",0,0,2]},{"code":401,"indent":4,"parameters":["\\>Random Encounters (Currently: OFF)\\<"]},{"code":401,"indent":4,"parameters":[""]},{"code":401,"indent":4,"parameters":["\\>(You will NOT enter random battles)\\<"]},{"code":102,"indent":4,"parameters":[["ON","OFF"],1,0,1,0]},{"code":402,"indent":4,"parameters":[0,"ON"]},{"code":121,"indent":5,"parameters":[3,3,0]},{"code":136,"indent":5,"parameters":[1]},{"code":0,"indent":5,"parameters":[]},{"code":402,"indent":4,"parameters":[1,"OFF"]},{"code":121,"indent":5,"parameters":[3,3,1]},{"code":136,"indent":5,"parameters":[0]},{"code":0,"indent":5,"parameters":[]},{"code":404,"indent":4,"parameters":[]},{"code":0,"indent":4,"parameters":[]},{"code":412,"indent":3,"parameters":[]},{"code":0,"indent":3,"parameters":[]},{"code":402,"indent":2,"parameters":[1,"Command Remember"]},{"code":355,"indent":3,"parameters":["$gameSwitches.setValue(5,ConfigManager.alwaysDash);"]},{"code":111,"indent":3,"parameters":[0,6,0]},{"code":101,"indent":4,"parameters":["",0,0,2]},{"code":401,"indent":4,"parameters":["\\>Command Remember (Currently: ON)\\<"]},{"code":401,"indent":4,"parameters":[""]},{"code":401,"indent":4,"parameters":["\\>(The game will automatically remember the last option you selected)\\<"]},{"code":102,"indent":4,"parameters":[["ON","OFF"],1,0,1,0]},{"code":402,"indent":4,"parameters":[0,"ON"]},{"code":355,"indent":5,"parameters":["ConfigManager.commandRemember = true;"]},{"code":0,"indent":5,"parameters":[]},{"code":402,"indent":4,"parameters":[1,"OFF"]},{"code":355,"indent":5,"parameters":["ConfigManager.commandRemember = false;"]},{"code":0,"indent":5,"parameters":[]},{"code":404,"indent":4,"parameters":[]},{"code":0,"indent":4,"parameters":[]},{"code":411,"indent":3,"parameters":[]},{"code":101,"indent":4,"parameters":["",0,0,2]},{"code":401,"indent":4,"parameters":["\\>Command Remember (Currently: OFF)\\<"]},{"code":401,"indent":4,"parameters":[""]},{"code":401,"indent":4,"parameters":["\\>(The game will automatically remember the last option you selected)\\<"]},{"code":102,"indent":4,"parameters":[["ON","OFF"],1,0,1,0]},{"code":402,"indent":4,"parameters":[0,"ON"]},{"code":355,"indent":5,"parameters":["ConfigManager.commandRemember = true;"]},{"code":0,"indent":5,"parameters":[]},{"code":402,"indent":4,"parameters":[1,"OFF"]},{"code":355,"indent":5,"parameters":["ConfigManager.commandRemember = false;"]},{"code":0,"indent":5,"parameters":[]},{"code":404,"indent":4,"parameters":[]},{"code":0,"indent":4,"parameters":[]},{"code":412,"indent":3,"parameters":[]},{"code":0,"indent":3,"parameters":[]},{"code":403,"indent":2,"parameters":[6,null]},{"code":0,"indent":3,"parameters":[]},{"code":404,"indent":2,"parameters":[]},{"code":0,"indent":2,"parameters":[]},{"code":402,"indent":1,"parameters":[3,"Control Settings"]},{"code":101,"indent":2,"parameters":["",0,0,2]},{"code":401,"indent":2,"parameters":["\\>Control Settings\\<"]},{"code":102,"indent":2,"parameters":[["Remap Controls","Always Dash"],-2,0,1,0]},{"code":402,"indent":2,"parameters":[0,"Remap Controls"]},{"code":355,"indent":3,"parameters":["SceneManager.push(Scene_KeyConfig);"]},{"code":0,"indent":3,"parameters":[]},{"code":402,"indent":2,"parameters":[1,"Always Dash"]},{"code":355,"indent":3,"parameters":["$gameSwitches.setValue(5,ConfigManager.alwaysDash);"]},{"code":111,"indent":3,"parameters":[0,5,0]},{"code":101,"indent":4,"parameters":["",0,0,2]},{"code":401,"indent":4,"parameters":["\\>Always Dash (Currently: ON)\\<"]},{"code":401,"indent":4,"parameters":[""]},{"code":401,"indent":4,"parameters":["\\>(Player will automatically be dashing, whenever possible)\\<"]},{"code":102,"indent":4,"parameters":[["ON","OFF"],1,0,1,0]},{"code":402,"indent":4,"parameters":[0,"ON"]},{"code":355,"indent":5,"parameters":["ConfigManager.alwaysDash = true;"]},{"code":0,"indent":5,"parameters":[]},{"code":402,"indent":4,"parameters":[1,"OFF"]},{"code":355,"indent":5,"parameters":["ConfigManager.alwaysDash = false;"]},{"code":0,"indent":5,"parameters":[]},{"code":404,"indent":4,"parameters":[]},{"code":0,"indent":4,"parameters":[]},{"code":411,"indent":3,"parameters":[]},{"code":101,"indent":4,"parameters":["",0,0,2]},{"code":401,"indent":4,"parameters":["\\>Always Dash (Currently: OFF)\\<"]},{"code":401,"indent":4,"parameters":[""]},{"code":401,"indent":4,"parameters":["\\>(Player will NOT automatically be dashing, whenever possible)\\<"]},{"code":102,"indent":4,"parameters":[["ON","OFF"],1,0,1,0]},{"code":402,"indent":4,"parameters":[0,"ON"]},{"code":355,"indent":5,"parameters":["ConfigManager.alwaysDash = true;"]},{"code":0,"indent":5,"parameters":[]},{"code":402,"indent":4,"parameters":[1,"OFF"]},{"code":355,"indent":5,"parameters":["ConfigManager.alwaysDash = false;"]},{"code":0,"indent":5,"parameters":[]},{"code":404,"indent":4,"parameters":[]},{"code":0,"indent":4,"parameters":[]},{"code":412,"indent":3,"parameters":[]},{"code":0,"indent":3,"parameters":[]},{"code":403,"indent":2,"parameters":[6,null]},{"code":0,"indent":3,"parameters":[]},{"code":404,"indent":2,"parameters":[]},{"code":0,"indent":2,"parameters":[]},{"code":403,"indent":1,"parameters":[6,null]},{"code":113,"indent":2,"parameters":[]},{"code":0,"indent":2,"parameters":[]},{"code":404,"indent":1,"parameters":[]},{"code":0,"indent":1,"parameters":[]},{"code":413,"indent":0,"parameters":[]},{"code":244,"indent":0,"parameters":[]},{"code":355,"indent":0,"parameters":["DataManager.saveSyncData();"]},{"code":655,"indent":0,"parameters":["ConfigManager.save();"]},{"code":0,"indent":0,"parameters":[]}],"name":"MENU_Options","switchId":1,"trigger":0},
{"id":22,"list":[{"code":222,"indent":0,"parameters":[]},{"code":235,"indent":0,"parameters":[30]},{"code":235,"indent":0,"parameters":[31]},{"code":235,"indent":0,"parameters":[32]},{"code":235,"indent":0,"parameters":[33]},{"code":235,"indent":0,"parameters":[40]},{"code":235,"indent":0,"parameters":[41]},{"code":235,"indent":0,"parameters":[42]},{"code":235,"indent":0,"parameters":[43]},{"code":235,"indent":0,"parameters":[50]},{"code":235,"indent":0,"parameters":[51]},{"code":235,"indent":0,"parameters":[52]},{"code":235,"indent":0,"parameters":[53]},{"code":235,"indent":0,"parameters":[60]},{"code":235,"indent":0,"parameters":[61]},{"code":235,"indent":0,"parameters":[62]},{"code":235,"indent":0,"parameters":[63]},{"code":235,"indent":0,"parameters":[64]},{"code":235,"indent":0,"parameters":[65]},{"code":235,"indent":0,"parameters":[66]},{"code":235,"indent":0,"parameters":[67]},{"code":235,"indent":0,"parameters":[68]},{"code":235,"indent":0,"parameters":[70]},{"code":235,"indent":0,"parameters":[71]},{"code":235,"indent":0,"parameters":[72]},{"code":235,"indent":0,"parameters":[73]},{"code":235,"indent":0,"parameters":[74]},{"code":235,"indent":0,"parameters":[75]},{"code":235,"indent":0,"parameters":[76]},{"code":235,"indent":0,"parameters":[77]},{"code":235,"indent":0,"parameters":[78]},{"code":355,"indent":0,"parameters":["MenuIsOpen = false;"]},{"code":0,"indent":0,"parameters":[]}],"name":"MENU_InstantClose","switchId":1,"trigger":0},
{"id":23,"list":[{"code":0,"indent":0,"parameters":[]}],"name":"","switchId":1,"trigger":0},
{"id":24,"list":[{"code":0,"indent":0,"parameters":[]}],"name":"","switchId":1,"trigger":0},
{"id":25,"list":[{"code":0,"indent":0,"parameters":[]}],"name":"","switchId":1,"trigger":0},
{"id":26,"list":[{"code":0,"indent":0,"parameters":[]}],"name":"","switchId":1,"trigger":0},
{"id":27,"list":[{"code":0,"indent":0,"parameters":[]}],"name":"","switchId":1,"trigger":0},
{"id":28,"list":[{"code":0,"indent":0,"parameters":[]}],"name":"","switchId":1,"trigger":0},
{"id":29,"list":[{"code":0,"indent":0,"parameters":[]}],"name":"","switchId":1,"trigger":0},
{"id":30,"list":[{"code":0,"indent":0,"parameters":[]}],"name":"-- Item Events --","switchId":1,"trigger":0},
{"id":31,"list":[{"code":122,"indent":0,"parameters":[17,17,0,3,7,0,0]},{"code":117,"indent":0,"parameters":[22]},{"code":111,"indent":0,"parameters":[1,17,0,5,5]},{"code":212,"indent":1,"parameters":[-1,122,true]},{"code":201,"indent":1,"parameters":[0,5,20,13,6,1]},{"code":0,"indent":1,"parameters":[]},{"code":412,"indent":0,"parameters":[]},{"code":0,"indent":0,"parameters":[]}],"name":"Jump to World Map","switchId":1,"trigger":0},
{"id":32,"list":[{"code":0,"indent":0,"parameters":[]}],"name":"","switchId":1,"trigger":0},
{"id":33,"list":[{"code":0,"indent":0,"parameters":[]}],"name":"","switchId":1,"trigger":0},
{"id":34,"list":[{"code":0,"indent":0,"parameters":[]}],"name":"","switchId":1,"trigger":0},
{"id":35,"list":[{"code":0,"indent":0,"parameters":[]}],"name":"","switchId":1,"trigger":0},
{"id":36,"list":[{"code":0,"indent":0,"parameters":[]}],"name":"","switchId":1,"trigger":0},
{"id":37,"list":[{"code":0,"indent":0,"parameters":[]}],"name":"","switchId":1,"trigger":0},
{"id":38,"list":[{"code":0,"indent":0,"parameters":[]}],"name":"","switchId":1,"trigger":0},
{"id":39,"list":[{"code":0,"indent":0,"parameters":[]}],"name":"","switchId":1,"trigger":0},
{"id":40,"list":[{"code":0,"indent":0,"parameters":[]}],"name":"","switchId":1,"trigger":0},
{"id":41,"list":[{"code":0,"indent":0,"parameters":[]}],"name":"","switchId":1,"trigger":0},
{"id":42,"list":[{"code":0,"indent":0,"parameters":[]}],"name":"","switchId":1,"trigger":0},
{"id":43,"list":[{"code":0,"indent":0,"parameters":[]}],"name":"","switchId":1,"trigger":0},
{"id":44,"list":[{"code":0,"indent":0,"parameters":[]}],"name":"","switchId":1,"trigger":0},
{"id":45,"list":[{"code":0,"indent":0,"parameters":[]}],"name":"","switchId":1,"trigger":0},
{"id":46,"list":[{"code":0,"indent":0,"parameters":[]}],"name":"","switchId":1,"trigger":0},
{"id":47,"list":[{"code":0,"indent":0,"parameters":[]}],"name":"","switchId":1,"trigger":0},
{"id":48,"list":[{"code":0,"indent":0,"parameters":[]}],"name":"","switchId":1,"trigger":0},
{"id":49,"list":[{"code":0,"indent":0,"parameters":[]}],"name":"","switchId":1,"trigger":0},
{"id":50,"list":[{"code":0,"indent":0,"parameters":[]}],"name":"","switchId":1,"trigger":0},
{"id":51,"list":[{"code":0,"indent":0,"parameters":[]}],"name":"","switchId":1,"trigger":0},
{"id":52,"list":[{"code":0,"indent":0,"parameters":[]}],"name":"","switchId":1,"trigger":0},
{"id":53,"list":[{"code":0,"indent":0,"parameters":[]}],"name":"","switchId":1,"trigger":0},
{"id":54,"list":[{"code":0,"indent":0,"parameters":[]}],"name":"","switchId":1,"trigger":0},
{"id":55,"list":[{"code":0,"indent":0,"parameters":[]}],"name":"","switchId":1,"trigger":0},
{"id":56,"list":[{"code":0,"indent":0,"parameters":[]}],"name":"","switchId":1,"trigger":0},
{"id":57,"list":[{"code":0,"indent":0,"parameters":[]}],"name":"","switchId":1,"trigger":0},
{"id":58,"list":[{"code":0,"indent":0,"parameters":[]}],"name":"","switchId":1,"trigger":0},
{"id":59,"list":[{"code":0,"indent":0,"parameters":[]}],"name":"","switchId":1,"trigger":0},
{"id":60,"list":[{"code":0,"indent":0,"parameters":[]}],"name":"","switchId":1,"trigger":0},
{"id":61,"list":[{"code":0,"indent":0,"parameters":[]}],"name":"","switchId":1,"trigger":0},
{"id":62,"list":[{"code":0,"indent":0,"parameters":[]}],"name":"","switchId":1,"trigger":0},
{"id":63,"list":[{"code":0,"indent":0,"parameters":[]}],"name":"","switchId":1,"trigger":0},
{"id":64,"list":[{"code":0,"indent":0,"parameters":[]}],"name":"","switchId":1,"trigger":0},
{"id":65,"list":[{"code":0,"indent":0,"parameters":[]}],"name":"","switchId":1,"trigger":0},
{"id":66,"list":[{"code":0,"indent":0,"parameters":[]}],"name":"","switchId":1,"trigger":0},
{"id":67,"list":[{"code":0,"indent":0,"parameters":[]}],"name":"","switchId":1,"trigger":0},
{"id":68,"list":[{"code":0,"indent":0,"parameters":[]}],"name":"","switchId":1,"trigger":0},
{"id":69,"list":[{"code":0,"indent":0,"parameters":[]}],"name":"","switchId":1,"trigger":0},
{"id":70,"list":[{"code":0,"indent":0,"parameters":[]}],"name":"","switchId":1,"trigger":0},
{"id":71,"list":[{"code":0,"indent":0,"parameters":[]}],"name":"","switchId":1,"trigger":0},
{"id":72,"list":[{"code":0,"indent":0,"parameters":[]}],"name":"","switchId":1,"trigger":0},
{"id":73,"list":[{"code":0,"indent":0,"parameters":[]}],"name":"","switchId":1,"trigger":0},
{"id":74,"list":[{"code":0,"indent":0,"parameters":[]}],"name":"","switchId":1,"trigger":0},
{"id":75,"list":[{"code":0,"indent":0,"parameters":[]}],"name":"","switchId":1,"trigger":0},
{"id":76,"list":[{"code":0,"indent":0,"parameters":[]}],"name":"","switchId":1,"trigger":0},
{"id":77,"list":[{"code":0,"indent":0,"parameters":[]}],"name":"","switchId":1,"trigger":0},
{"id":78,"list":[{"code":0,"indent":0,"parameters":[]}],"name":"","switchId":1,"trigger":0},
{"id":79,"list":[{"code":0,"indent":0,"parameters":[]}],"name":"","switchId":1,"trigger":0},
{"id":80,"list":[{"code":0,"indent":0,"parameters":[]}],"name":"","switchId":1,"trigger":0},
{"id":81,"list":[{"code":0,"indent":0,"parameters":[]}],"name":"","switchId":1,"trigger":0},
{"id":82,"list":[{"code":0,"indent":0,"parameters":[]}],"name":"","switchId":1,"trigger":0},
{"id":83,"list":[{"code":0,"indent":0,"parameters":[]}],"name":"","switchId":1,"trigger":0},
{"id":84,"list":[{"code":0,"indent":0,"parameters":[]}],"name":"","switchId":1,"trigger":0},
{"id":85,"list":[{"code":0,"indent":0,"parameters":[]}],"name":"","switchId":1,"trigger":0},
{"id":86,"list":[{"code":0,"indent":0,"parameters":[]}],"name":"","switchId":1,"trigger":0},
{"id":87,"list":[{"code":0,"indent":0,"parameters":[]}],"name":"","switchId":1,"trigger":0},
{"id":88,"list":[{"code":0,"indent":0,"parameters":[]}],"name":"","switchId":1,"trigger":0},
{"id":89,"list":[{"code":0,"indent":0,"parameters":[]}],"name":"","switchId":1,"trigger":0},
{"id":90,"list":[{"code":0,"indent":0,"parameters":[]}],"name":"","switchId":1,"trigger":0},
{"id":91,"list":[{"code":0,"indent":0,"parameters":[]}],"name":"","switchId":1,"trigger":0},
{"id":92,"list":[{"code":0,"indent":0,"parameters":[]}],"name":"","switchId":1,"trigger":0},
{"id":93,"list":[{"code":0,"indent":0,"parameters":[]}],"name":"","switchId":1,"trigger":0},
{"id":94,"list":[{"code":0,"indent":0,"parameters":[]}],"name":"","switchId":1,"trigger":0},
{"id":95,"list":[{"code":0,"indent":0,"parameters":[]}],"name":"","switchId":1,"trigger":0},
{"id":96,"list":[{"code":0,"indent":0,"parameters":[]}],"name":"","switchId":1,"trigger":0},
{"id":97,"list":[{"code":0,"indent":0,"parameters":[]}],"name":"","switchId":1,"trigger":0},
{"id":98,"list":[{"code":0,"indent":0,"parameters":[]}],"name":"","switchId":1,"trigger":0},
{"id":99,"list":[{"code":0,"indent":0,"parameters":[]}],"name":"","switchId":1,"trigger":0},
{"id":100,"list":[{"code":0,"indent":0,"parameters":[]}],"name":"","switchId":1,"trigger":0}
]