[
null,
{"id":1,"expanded":true,"name":"TitleScreen (1)","order":3,"parentId":4,"scrollX":557,"scrollY":311},
{"id":2,"expanded":false,"name":"GameOver (2)","order":4,"parentId":4,"scrollX":531,"scrollY":327},
{"id":3,"expanded":true,"name":"Test Map! (3)","order":1,"parentId":0,"scrollX":531,"scrollY":311},
{"id":4,"expanded":true,"name":"MENUS! (4)","order":2,"parentId":0,"scrollX":531,"scrollY":319},
{"id":5,"expanded":true,"name":"WORLD MAP (5)","order":5,"parentId":0,"scrollX":531,"scrollY":297},
{"id":6,"expanded":true,"name":"Senate Town (6)","order":6,"parentId":0,"scrollX":2075,"scrollY":867},
{"id":7,"expanded":false,"name":"Sulfate Desert (7)","order":7,"parentId":6,"scrollX":531,"scrollY":2252},
{"id":8,"expanded":true,"name":"Kali's Room (8)","order":8,"parentId":0,"scrollX":531,"scrollY":297}
]